[
  {
    "type": 1,
    "title": "Données",
    "key": "dataCategory"
  },
  {
    "type": 2,
    "title": "Pouvez-vous corriger les données incorrectes ?",
    "summary": "Oui, certaines données peuvent être incorrectes dans certains cas, mais vous verrez le plus souvent les données correctes. Je peux essayer de corriger certains problèmes de données, mais je ne peux pas corriger les problèmes dûs au fabricants.",
    "key": "dataInfo1"
  },
  {
    "type": 1,
    "title": "Autorisations",
    "key": "permissionsCategory"
  },
  {
    "type": 2,
    "title": "Pourquoi lʼautorisation « Téléphone » est-elle nécessaire ?",
    "summary": "Elle permet dʼafficher le numéro IMEI de votre appareil.",
    "key": "permissionInfo1"
  },
  {
    "type": 2,
    "title": "Pourquoi lʼautorisation « Position » est-elle nécessaire ?",
    "summary": "Elle permet de lire les informations détaillées à propos de votre connexion Wi-Fi.",
    "key": "permissionInfo2"
  },
  {
    "type": 2,
    "title": "Puis-je refuser toutes les autorisations supplémentaires ?",
    "summary": "Oui, cependant certaines données pourraient sʼafficher comme non disponible.",
    "key": "permissionInfo3"
  },
  {
    "type": 1,
    "title": "Système",
    "key": "systemCategory"
  },
  {
    "type": 2,
    "title": "Pourquoi « Publié avec » est-il incorrect ?",
    "summary": "Cette information peut ne pas être disponible si vous utilisez certaines ROM custom ou si le fabriquant de votre appareil nʼa pas renseigné lʼinformation.",
    "key": "systemInfo1"
  },
  {
    "type": 2,
    "title": "Puis-je afficher plus dʼinformations à propos de la version du noyeau de mon appareil ?",
    "summary": "Appuyez sur « Version du noyau » pour afficher les informations détaillées. Si rien ne se passe, cette donnée nʼest pas disponible pour votre appareil.",
    "key": "systemInfo2"
  },
  {
    "type": 1,
    "title": "Matériel",
    "key": "hardwareCategory"
  },
  {
    "type": 2,
    "title": "Quasiment toutes les informations à propos du GPU sont marquées comme « Indisponible », pouvez-vous corriger cela ?",
    "summary": "Dans la plupart des cas, cela est dû à SELinux qui empêche les applications tierces de lire ce genre dʼinformations dans le mode « Enforcing ». Donc probablement non.",
    "key": "harwareInfo1"
  },
  {
    "type": 1,
    "title": "Autre",
    "key": "otherCategory"
  },
  {
    "type": 2,
    "title": "Y a-t-il un « easter egg » dans lʼapplication ?",
    "summary": "Oui.",
    "key": "otherInfo1"
  }
]